{
    "$schema": "https://themost-framework.github.io/themost/models/2018/2/schema.json",
    "@id": "http://schema.org/OpeningHoursSpecification",
    "name": "OpeningHoursSpecification",
    "description": "A structured value providing information about the opening hours of a place or a certain service inside a place.</p>\n\n<p>The place is <strong>open</strong> if the <a class=\"localLink\" href=\"http://schema.org/opens\">opens</a> property is specified, and <strong>closed</strong> otherwise.</p>\n\n<p>If the value for the <a class=\"localLink\" href=\"http://schema.org/closes\">closes</a> property is less than the value for the <a class=\"localLink\" href=\"http://schema.org/opens\">opens</a> property then the hour range is assumed to span over the next day.",
    "title": "OpeningHoursSpecification",
    "abstract": false,
    "sealed": false,
    "inherits": "StructuredValue",
    "version": "1.0",
    "fields": [
        {
            "@id": "http://schema.org/validFrom",
            "name": "validFrom",
            "title": "validFrom",
            "description": "The date when the item becomes valid.",
            "type": "DateTime"
        },
        {
            "@id": "http://schema.org/validThrough",
            "name": "validThrough",
            "title": "validThrough",
            "description": "The date after when the item is not valid. For example the end of an offer, salary period, or a period of opening hours.",
            "type": "DateTime"
        },
        {
            "@id": "http://schema.org/opens",
            "name": "opens",
            "title": "opens",
            "description": "The opening hour of the place or service on the given day(s) of the week.",
            "type": "Time"
        },
        {
            "@id": "http://schema.org/closes",
            "name": "closes",
            "title": "closes",
            "description": "The closing hour of the place or service on the given day(s) of the week.",
            "type": "Time"
        },
        {
            "@id": "http://schema.org/dayOfWeek",
            "name": "dayOfWeek",
            "title": "dayOfWeek",
            "description": "The day of the week for which these opening hours are valid.",
            "type": "Integer"
        }
    ],
    "privileges": [
        {
            "mask": 15,
            "type": "global"
        },
        {
            "mask": 15,
            "type": "global",
            "account": "Administrators"
        }
    ]
}
